<?xml version="1.0" encoding="UTF-8"?>
<svg id="a" width="22px" height="22px" version="1.1" viewBox="0 0 22 22" xmlns="http://www.w3.org/2000/svg">
 <g class="ColorScheme-Text" fill="none" stroke="currentColor">
  <path d="m17.5 14.5v-10l-13.008-0.0082539 0.0082545 10.008h2v4l3.5-4z" fill="none" opacity="1" stroke="#000"/>
 </g>
</svg>
